{
  "engine": "cocos-creator-js",
  "packages": "packages",
  "name": "hitoms",
  "uuid": "703b17dd-cef0-43b1-adc9-867aff37a76f",
  "version": "2.3.3",
  "id": "2df94948-c00d-4597-96d4-566500981381",
  "isNew": false
}